<!-- Database Map
			<pre>
                transcribe_omeka:

                omeka_items: 
                    contains ids, featured, public
                    probably don't need this at all?
                omeka_files:
                    contains item_id, 
                omeka_element_sets: 
                    confirms sources of omeka_elements (eg scripto)
                omeka_element_texts: 
                    actual content for elements
                    transcriptions+titles contain omeka_files.id and omeka_items.id
                        record_id
                omeka_elements: 
                    describes omeka elements

                omeka element ids: 
                    50 = title
                    52 = transcription
					41 = description

            </pre> -->